^D:\GC1A15\C++課題\CPP_KADAI\課題５\課題５\DEBUG\DATA.OBJ|D:\GC1A15\C++課題\CPP_KADAI\課題５\課題５\DEBUG\MAIN.OBJ
/OUT:"D:\GC1A15\C++課題\CPP_KADAI\課題５\課題５\DEBUG\課題５.EXE" /INCREMENTAL /NOLOGO KERNEL32.LIB USER32.LIB GDI32.LIB WINSPOOL.LIB COMDLG32.LIB ADVAPI32.LIB SHELL32.LIB OLE32.LIB OLEAUT32.LIB UUID.LIB ODBC32.LIB ODBCCP32.LIB /MANIFEST /MANIFESTUAC:"level='asInvoker' uiAccess='false'" /manifest:embed /DEBUG:FASTLINK /PDB:"D:\GC1A15\C++課題\CPP_KADAI\課題５\課題５\DEBUG\課題５.PDB" /SUBSYSTEM:CONSOLE /TLBID:1 /DYNAMICBASE /NXCOMPAT /IMPLIB:"D:\GC1A15\C++課題\CPP_KADAI\課題５\課題５\DEBUG\課題５.LIB" /MACHINE:X86 DEBUG\DATA.OBJ
DEBUG\MAIN.OBJ
